…
```r
library("dplyr", warn.conflicts=FALSE)             ## load dplyr silently
if (file.exists("./data/activity.csv")) {          ## check if file exists
        unlink("./data/activity.csv")              ## if so -> delete 
}
unzip("./activity.zip", exdir = "./data")          ## unzip into data dir
DF_raw <- tbl_df(read.csv("./data/activity.csv"))  ## load into a dataset
DF_raw                                             ## and take a peek
```

```
## # A tibble: 17,568 x 3
##    steps       date interval
##    <int>     <fctr>    <int>
## 1     NA 2012-10-01        0
## 2     NA 2012-10-01        5
## 3     NA 2012-10-01       10
## 4     NA 2012-10-01       15
## 5     NA 2012-10-01       20
## 6     NA 2012-10-01       25
## 7     NA 2012-10-01       30
## 8     NA 2012-10-01       35
## 9     NA 2012-10-01       40
## 10    NA 2012-10-01       45
## # ... with 17,558 more rows
```
…
First we calculate the total number of steps taken each day. Using dplyr we
group the dataset by date and sum the steps into a column named 'total'.


```r
DF_tsd <-                                    ## dplyr-code to create DF-tsd
        DF_raw %>%                           ## use DF-raw to
        select(steps, date) %>%              ## select relevant columns
        group_by(date) %>%                   ## group them by date
        summarize(total = sum(steps)) %>%    ## calculate the sum of steps
        print()                              ## and take a peek
```

```
## # A tibble: 61 x 2
##          date total
##        <date> <int>
## 1  2012-10-01    NA
## 2  2012-10-02   126
## 3  2012-10-03 11352
## 4  2012-10-04 12116
## 5  2012-10-05 13294
## 6  2012-10-06 15420
## 7  2012-10-07 11015
## 8  2012-10-08    NA
## 9  2012-10-09 12811
## 10 2012-10-10  9900
## # ... with 51 more rows
```
…
```r
DF_dap <-                                    ## dplyr-code to create DF-dap
        DF_raw %>%                           ## use DF-raw to
        select(steps, interval) %>%          ## select relevant columns
        group_by(interval) %>%               ## group them by interval
        summarize(avg = mean(steps,          ## calculate the mean of the
                  na.rm = TRUE)) %>%         ## interval across days
        print()                              ## and take a peek
```

```
## # A tibble: 288 x 2
##    interval       avg
##       <int>     <dbl>
## 1         0 1.7169811
## 2         5 0.3396226
## 3        10 0.1320755
## 4        15 0.1509434
## 5        20 0.0754717
## 6        25 2.0943396
## 7        30 0.5283019
## 8        35 0.8679245
## 9        40 0.0000000
## 10       45 1.4716981
## # ... with 278 more rows
```
…
```r
DF_nas <-                                     ## create new dataset
        DF_raw %>%                            ## derived from DF_raw
        group_by(interval) %>%                ## grouped to get mean/interval
        mutate(steps = ifelse(is.na(steps),   ## replace steps if value is NA
        as.integer(mean(steps, na.rm=TRUE)),  ## with the mean of the interval
        steps)) %>%                           ## or leave steps alone.
        group_by() %>%                        ## Remove the interval grouping
        print                                 ## and take a peek
```

```
## # A tibble: 17,568 x 3
##    steps       date interval
##    <int>     <date>    <int>
## 1      1 2012-10-01        0
## 2      0 2012-10-01        5
## 3      0 2012-10-01       10
## 4      0 2012-10-01       15
## 5      0 2012-10-01       20
## 6      2 2012-10-01       25
## 7      0 2012-10-01       30
## 8      0 2012-10-01       35
## 9      0 2012-10-01       40
## 10     1 2012-10-01       45
## # ... with 17,558 more rows
```
…
Next we recalculate the total number of steps taken each day. Using dplyr we
group the dataset by date and sum the steps into a column named 'total'.


```r
DF_tsdnas <-                                 ## dplyr-code to create DF-tsdnas
        DF_nas %>%                           ## use DF-nas to
        select(steps, date) %>%              ## select relevant columns
        group_by(date) %>%                   ## group them by date
        summarize(total = sum(steps)) %>%    ## calculate the sum of steps
        print()                              ## and take a peek
```

```
## # A tibble: 61 x 2
##          date total
##        <date> <int>
## 1  2012-10-01 10641
## 2  2012-10-02   126
## 3  2012-10-03 11352
## 4  2012-10-04 12116
## 5  2012-10-05 13294
## 6  2012-10-06 15420
## 7  2012-10-07 11015
## 8  2012-10-08 10641
## 9  2012-10-09 12811
## 10 2012-10-10  9900
## # ... with 51 more rows
```
…
```r
WE <- c("Saturday", "Sunday")
DF_nasw <-                                   ## dplyr-code to create DF-nasw
        DF_nas %>%                           ## use DF-nas to
        mutate(ww = ifelse(weekdays(date)    ## add a column 'ww'
                           %in% WE,          ## check if weekday = Sat or Sun
                           "weekend",        ## then fill it with "weekend"
                           "weekday")) %>%   ## else fill it with "weekday"
        print                                ## and take a peek
```

```
## # A tibble: 17,568 x 4
##    steps       date interval      ww
##    <int>     <date>    <int>   <chr>
## 1      1 2012-10-01        0 weekday
## 2      0 2012-10-01        5 weekday
## 3      0 2012-10-01       10 weekday
## 4      0 2012-10-01       15 weekday
## 5      0 2012-10-01       20 weekday
## 6      2 2012-10-01       25 weekday
## 7      0 2012-10-01       30 weekday
## 8      0 2012-10-01       35 weekday
## 9      0 2012-10-01       40 weekday
## 10     1 2012-10-01       45 weekday
## # ... with 17,558 more rows
```

```r
DF_dapw <-                                   ## dplyr-code to create DF-dapw
        DF_nasw %>%                          ## use DF-nasw to
        select(steps, interval, ww) %>%      ## select the relevant columns
        group_by(ww, interval) %>%           ## group them by ww & interval
        summarize(avg = mean(steps, 
                  na.rm = TRUE)) %>%         ## calculate the mean across days
        print                                ## and take a peek
```

```
## Source: local data frame [576 x 3]
## Groups: ww [?]
## 
##         ww interval        avg
##      <chr>    <int>      <dbl>
## 1  weekday        0 2.15555556
## 2  weekday        5 0.40000000
## 3  weekday       10 0.15555556
## 4  weekday       15 0.17777778
## 5  weekday       20 0.08888889
## 6  weekday       25 1.57777778
## 7  weekday       30 0.62222222
## 8  weekday       35 1.02222222
## 9  weekday       40 0.00000000
## 10 weekday       45 1.73333333
## # ... with 566 more rows
```
…
